{
  "totalHits": 22435,
  "currentPage": 1,
  "totalPages": 11218,
  "pageList": [
    1,
    2,
    3,
    4,
    5,
    6,
    7,
    8,
    9,
    10
  ],
  "foodSearchCriteria": {
    "query": "apple",
    "generalSearchInput": "apple",
    "pageNumber": 1,
    "numberOfResultsPerPage": 50,
    "pageSize": 2,
    "requireAllWords": false
  },
  "foods": [
    {
      "fdcId": 454004,
      "description": "APPLE",
      "lowercaseDescription": "apple",
      "dataType": "Branded",
      "gtinUpc": "867824000001",
      "publishedDate": "2019-04-01",
      "brandOwner": "TREECRISP 2 GO",
      "ingredients": "CRISP APPLE.",
      "marketCountry": "United States",
      "foodCategory": "Pre-Packaged Fruit & Vegetables",
      "modifiedDate": "2017-07-14",
      "dataSource": "LI",
      "servingSizeUnit": "g",
      "servingSize": 154.0,
      "householdServingFullText": "5.5 ONZ",
      "allHighlightFields": "<b>Ingredients</b>: CRISP <em>APPLE</em>.",
      "score": 923.90234,
      "foodNutrients": [
        {
          "nutrientId": 1087,
          "nutrientName": "Calcium, Ca",
          "nutrientNumber": "301",
          "unitName": "MG",
          "derivationCode": "LCCD",
          "derivationDescription": "Calculated from a daily value percentage per serving size measure",
          "derivationId": 75,
          "value": 0.0,
          "foodNutrientSourceId": 9,
          "foodNutrientSourceCode": "12",
          "foodNutrientSourceDescription": "Manufacturer's analytical; partial documentation",
          "rank": 5300,
          "indentLevel": 1,
          "foodNutrientId": 3145990,
          "percentDailyValue": 0
        },
        {
          "nutrientId": 1089,
          "nutrientName": "Iron, Fe",
          "nutrientNumber": "303",
          "unitName": "MG",
          "derivationCode": "LCCD",
          "derivationDescription": "Calculated from a daily value percentage per serving size measure",
          "derivationId": 75,
          "value": 0.23,
          "foodNutrientSourceId": 9,
          "foodNutrientSourceCode": "12",
          "foodNutrientSourceDescription": "Manufacturer's analytical; partial documentation",
          "rank": 5400,
          "indentLevel": 1,
          "foodNutrientId": 3145991,
          "percentDailyValue": 2
        },
        {
          "nutrientId": 1093,
          "nutrientName": "Sodium, Na",
          "nutrientNumber": "307",
          "unitName": "MG",
          "derivationCode": "LCCD",
          "derivationDescription": "Calculated from a daily value percentage per serving size measure",
          "derivationId": 75,
          "value": 0.0,
          "foodNutrientSourceId": 9,
          "foodNutrientSourceCode": "12",
          "foodNutrientSourceDescription": "Manufacturer's analytical; partial documentation",
          "rank": 5800,
          "indentLevel": 1,
          "foodNutrientId": 3145992,
          "percentDailyValue": 0
        },
        {
          "nutrientId": 1104,
          "nutrientName": "Vitamin A, IU",
          "nutrientNumber": "318",
          "unitName": "IU",
          "derivationCode": "LCCD",
          "derivationDescription": "Calculated from a daily value percentage per serving size measure",
          "derivationId": 75,
          "value": 65.0,
          "foodNutrientSourceId": 9,
          "foodNutrientSourceCode": "12",
          "foodNutrientSourceDescription": "Manufacturer's analytical; partial documentation",
          "rank": 7500,
          "indentLevel": 1,
          "foodNutrientId": 3145993,
          "percentDailyValue": 2
        },
        {
          "nutrientId": 1162,
          "nutrientName": "Vitamin C, total ascorbic acid",
          "nutrientNumber": "401",
          "unitName": "MG",
          "derivationCode": "LCCD",
          "derivationDescription": "Calculated from a daily value percentage per serving size measure",
          "derivationId": 75,
          "value": 3.1,
          "foodNutrientSourceId": 9,
          "foodNutrientSourceCode": "12",
          "foodNutrientSourceDescription": "Manufacturer's analytical; partial documentation",
          "rank": 6300,
          "indentLevel": 1,
          "foodNutrientId": 3145994,
          "percentDailyValue": 8
        },
        {
          "nutrientId": 1253,
          "nutrientName": "Cholesterol",
          "nutrientNumber": "601",
          "unitName": "MG",
          "derivationCode": "LCCD",
          "derivationDescription": "Calculated from a daily value percentage per serving size measure",
          "derivationId": 75,
          "value": 0.0,
          "foodNutrientSourceId": 9,
          "foodNutrientSourceCode": "12",
          "foodNutrientSourceDescription": "Manufacturer's analytical; partial documentation",
          "rank": 15700,
          "indentLevel": 1,
          "foodNutrientId": 3145995,
          "percentDailyValue": 0
        },
        {
          "nutrientId": 1258,
          "nutrientName": "Fatty acids, total saturated",
          "nutrientNumber": "606",
          "unitName": "G",
          "derivationCode": "LCCD",
          "derivationDescription": "Calculated from a daily value percentage per serving size measure",
          "derivationId": 75,
          "value": 0.0,
          "foodNutrientSourceId": 9,
          "foodNutrientSourceCode": "12",
          "foodNutrientSourceDescription": "Manufacturer's analytical; partial documentation",
          "rank": 9700,
          "indentLevel": 1,
          "foodNutrientId": 3145996,
          "percentDailyValue": 0
        },
        {
          "nutrientId": 1003,
          "nutrientName": "Protein",
          "nutrientNumber": "203",
          "unitName": "G",
          "derivationCode": "LCCS",
          "derivationDescription": "Calculated from value per serving size measure",
          "derivationId": 70,
          "value": 0.0,
          "foodNutrientSourceId": 9,
          "foodNutrientSourceCode": "12",
          "foodNutrientSourceDescription": "Manufacturer's analytical; partial documentation",
          "rank": 600,
          "indentLevel": 1,
          "foodNutrientId": 4587770,
          "percentDailyValue": 0
        },
        {
          "nutrientId": 1005,
          "nutrientName": "Carbohydrate, by difference",
          "nutrientNumber": "205",
          "unitName": "G",
          "derivationCode": "LCCS",
          "derivationDescription": "Calculated from value per serving size measure",
          "derivationId": 70,
          "value": 14.3,
          "foodNutrientSourceId": 9,
          "foodNutrientSourceCode": "12",
          "foodNutrientSourceDescription": "Manufacturer's analytical; partial documentation",
          "rank": 1110,
          "indentLevel": 2,
          "foodNutrientId": 4587771,
          "percentDailyValue": 7
        },
        {
          "nutrientId": 1008,
          "nutrientName": "Energy",
          "nutrientNumber": "208",
          "unitName": "KCAL",
          "derivationCode": "LCCS",
          "derivationDescription": "Calculated from value per serving size measure",
          "derivationId": 70,
          "value": 52.0,
          "foodNutrientSourceId": 9,
          "foodNutrientSourceCode": "12",
          "foodNutrientSourceDescription": "Manufacturer's analytical; partial documentation",
          "rank": 300,
          "indentLevel": 1,
          "foodNutrientId": 4587772,
          "percentDailyValue": 0
        },
        {
          "nutrientId": 2000,
          "nutrientName": "Sugars, total including NLEA",
          "nutrientNumber": "269",
          "unitName": "G",
          "derivationCode": "LCCS",
          "derivationDescription": "Calculated from value per serving size measure",
          "derivationId": 70,
          "value": 10.4,
          "foodNutrientSourceId": 9,
          "foodNutrientSourceCode": "12",
          "foodNutrientSourceDescription": "Manufacturer's analytical; partial documentation",
          "rank": 1510,
          "indentLevel": 3,
          "foodNutrientId": 4587773,
          "percentDailyValue": 0
        },
        {
          "nutrientId": 1079,
          "nutrientName": "Fiber, total dietary",
          "nutrientNumber": "291",
          "unitName": "G",
          "derivationCode": "LCCS",
          "derivationDescription": "Calculated from value per serving size measure",
          "derivationId": 70,
          "value": 3.2,
          "foodNutrientSourceId": 9,
          "foodNutrientSourceCode": "12",
          "foodNutrientSourceDescription": "Manufacturer's analytical; partial documentation",
          "rank": 1200,
          "indentLevel": 3,
          "foodNutrientId": 4587774,
          "percentDailyValue": 20
        },
        {
          "nutrientId": 1092,
          "nutrientName": "Potassium, K",
          "nutrientNumber": "306",
          "unitName": "MG",
          "derivationCode": "LCCS",
          "derivationDescription": "Calculated from value per serving size measure",
          "derivationId": 70,
          "value": 110,
          "foodNutrientSourceId": 9,
          "foodNutrientSourceCode": "12",
          "foodNutrientSourceDescription": "Manufacturer's analytical; partial documentation",
          "rank": 5700,
          "indentLevel": 1,
          "foodNutrientId": 4587775,
          "percentDailyValue": 5
        },
        {
          "nutrientId": 1257,
          "nutrientName": "Fatty acids, total trans",
          "nutrientNumber": "605",
          "unitName": "G",
          "derivationCode": "LCCS",
          "derivationDescription": "Calculated from value per serving size measure",
          "derivationId": 70,
          "value": 0.0,
          "foodNutrientSourceId": 9,
          "foodNutrientSourceCode": "12",
          "foodNutrientSourceDescription": "Manufacturer's analytical; partial documentation",
          "rank": 15400,
          "indentLevel": 1,
          "foodNutrientId": 4587776,
    